{
    "wallpaper": "/home/micah/.config/wpg/wallpapers/5_centimeters_per_second_-_1.jpg",
    "alpha": "100",

    "special": {
        "background": "#080F0F",
        "foreground": "#f8ffff",
        "cursor": "#f8ffff"
    },
    "colors": {
        "color0": "#080F0F",
        "color1": "#8B746D",
        "color2": "#4E6671",
        "color3": "#53768A",
        "color4": "#3B6186",
        "color5": "#6A949C",
        "color6": "#78A9C6",
        "color7": "#c0cac9",
        "color8": "#152929",
        "color9": "#c48e7d",
        "color10": "#59899f",
        "color11": "#5d9dc1",
        "color12": "#407eba",
        "color13": "#78cbdb",
        "color14": "#87e0ff",
        "color15": "#f8ffff"
    }
}
