{
    "wallpaper": "/home/micah/.config/wpg/wallpapers/fate_stay_night_-_saber_4.jpg",
    "alpha": "100",

    "special": {
        "background": "#1a1013",
        "foreground": "#fffff8",
        "cursor": "#fffff8"
    },
    "colors": {
        "color0": "#1a1013",
        "color1": "#AE9A9E",
        "color2": "#D7AF9C",
        "color3": "#EDD6AB",
        "color4": "#C2B1CA",
        "color5": "#967493",
        "color6": "#7E80C0",
        "color7": "#ebe6e0",
        "color8": "#331f24",
        "color9": "#f7b2c0",
        "color10": "#ffdab2",
        "color11": "#ffffbc",
        "color12": "#ffcdff",
        "color13": "#d485cd",
        "color14": "#8f93ff",
        "color15": "#fffff8"
    }
}
