{
    "wallpaper": "/home/micah/.config/wpg/wallpapers/garden_of_words_-_1.jpg",
    "alpha": "100",

    "special": {
        "background": "#0D171B",
        "foreground": "#fff9df",
        "cursor": "#fff9df"
    },
    "colors": {
        "color0": "#0D171B",
        "color1": "#C86D60",
        "color2": "#374351",
        "color3": "#906462",
        "color4": "#334A66",
        "color5": "#6F5357",
        "color6": "#4B4752",
        "color7": "#e1c4b0",
        "color8": "#192e36",
        "color9": "#ff7f69",
        "color10": "#3e5672",
        "color11": "#ca736f",
        "color12": "#385f8e",
        "color13": "#9c5f68",
        "color14": "#5e5274",
        "color15": "#fff9df"
    }
}
